{
  "hits": {
    "hits": [
      {
        "name": "'Abbas",
        "id": "geonames::1149672",
        "created": "2022-07-04T03:31:50.826009+00:00",
        "revision_id": 1,
        "locations": [
          {
            "geometry": {
              "type": "Point",
              "coordinates": [
                67.64328,
                33.333
              ]
            }
          }
        ],
        "links": {
          "self": "https://api-mock/api/geoidentifiers/geonames%3A%3A1149672"
        },
        "updated": "2022-07-04T03:31:50.840399+00:00",
        "scheme": "GeoNames"
      },
      {
        "name": "'Abbas 'Ali",
        "id": "geonames::1149670",
        "created": "2022-07-04T03:31:50.615054+00:00",
        "revision_id": 1,
        "locations": [
          {
            "geometry": {
              "type": "Point",
              "coordinates": [
                65.96804,
                32.8134
              ]
            }
          }
        ],
        "links": {
          "self": "https://api-mock/api/geoidentifiers/geonames%3A%3A1149670"
        },
        "updated": "2022-07-04T03:31:50.631540+00:00",
        "scheme": "GeoNames"
      },
      {
        "name": "'Abbas 'Ali",
        "id": "geonames::7428146",
        "created": "2022-07-04T05:05:30.386130+00:00",
        "revision_id": 1,
        "locations": [
          {
            "geometry": {
              "type": "Point",
              "coordinates": [
                65.97442,
                32.81863
              ]
            }
          }
        ],
        "links": {
          "self": "https://api-mock/api/geoidentifiers/geonames%3A%3A7428146"
        },
        "updated": "2022-07-04T05:05:30.404857+00:00",
        "scheme": "GeoNames"
      },
      {
        "name": "'Abbas Ghar",
        "id": "geonames::1474164",
        "created": "2022-07-04T04:53:40.811148+00:00",
        "revision_id": 1,
        "locations": [
          {
            "geometry": {
              "type": "Point",
              "coordinates": [
                70.96439,
                34.89766
              ]
            }
          }
        ],
        "links": {
          "self": "https://api-mock/api/geoidentifiers/geonames%3A%3A1474164"
        },
        "updated": "2022-07-04T04:53:40.829629+00:00",
        "scheme": "GeoNames"
      },
      {
        "name": "'Abbas Kala",
        "id": "geonames::1435750",
        "created": "2022-07-04T03:53:05.016644+00:00",
        "revision_id": 1,
        "locations": [
          {
            "geometry": {
              "type": "Point",
              "coordinates": [
                67.80053,
                32.7825
              ]
            }
          }
        ],
        "links": {
          "self": "https://api-mock/api/geoidentifiers/geonames%3A%3A1435750"
        },
        "updated": "2022-07-04T03:53:05.029637+00:00",
        "scheme": "GeoNames"
      },
      {
        "name": "'Abbas Khan Kala",
        "id": "geonames::1349613",
        "created": "2022-07-04T03:33:18.353824+00:00",
        "revision_id": 1,
        "locations": [
          {
            "geometry": {
              "type": "Point",
              "coordinates": [
                69.20712,
                32.46923
              ]
            }
          }
        ],
        "links": {
          "self": "https://api-mock/api/geoidentifiers/geonames%3A%3A1349613"
        },
        "updated": "2022-07-04T03:33:18.369484+00:00",
        "scheme": "GeoNames"
      },
      {
        "name": "'Abbas Khan Kala",
        "id": "geonames::1433877",
        "created": "2022-07-04T03:49:19.207417+00:00",
        "revision_id": 1,
        "locations": [
          {
            "geometry": {
              "type": "Point",
              "coordinates": [
                69.20979,
                32.50398
              ]
            }
          }
        ],
        "links": {
          "self": "https://api-mock/api/geoidentifiers/geonames%3A%3A1433877"
        },
        "updated": "2022-07-04T03:49:19.224783+00:00",
        "scheme": "GeoNames"
      },
      {
        "name": "'Abbas Khel",
        "id": "geonames::1149668",
        "created": "2022-07-04T03:31:50.296230+00:00",
        "revision_id": 1,
        "locations": [
          {
            "geometry": {
              "type": "Point",
              "coordinates": [
                67.59182,
                31.97585
              ]
            }
          }
        ],
        "links": {
          "self": "https://api-mock/api/geoidentifiers/geonames%3A%3A1149668"
        },
        "updated": "2022-07-04T03:31:50.312837+00:00",
        "scheme": "GeoNames"
      },
      {
        "name": "'Abbas Khel",
        "id": "geonames::1136457",
        "created": "2022-07-04T03:02:54.490428+00:00",
        "revision_id": 1,
        "locations": [
          {
            "geometry": {
              "type": "Point",
              "coordinates": [
                69.26056,
                32.83139
              ]
            }
          }
        ],
        "links": {
          "self": "https://api-mock/api/geoidentifiers/geonames%3A%3A1136457"
        },
        "updated": "2022-07-04T03:02:54.508590+00:00",
        "scheme": "GeoNames"
      },
      {
        "name": "'Abbas Khel Shamali",
        "id": "geonames::1149667",
        "created": "2022-07-04T03:31:50.172746+00:00",
        "revision_id": 1,
        "locations": [
          {
            "geometry": {
              "type": "Point",
              "coordinates": [
                69.12336,
                32.83199
              ]
            }
          }
        ],
        "links": {
          "self": "https://api-mock/api/geoidentifiers/geonames%3A%3A1149667"
        },
        "updated": "2022-07-04T03:31:50.189457+00:00",
        "scheme": "GeoNames"
      },
      {
        "name": "'Abbas Khel-e Junubi",
        "id": "geonames::1433943",
        "created": "2022-07-04T03:49:28.570217+00:00",
        "revision_id": 1,
        "locations": [
          {
            "geometry": {
              "type": "Point",
              "coordinates": [
                69.13467,
                32.67188
              ]
            }
          }
        ],
        "links": {
          "self": "https://api-mock/api/geoidentifiers/geonames%3A%3A1433943"
        },
        "updated": "2022-07-04T03:49:28.584306+00:00",
        "scheme": "GeoNames"
      },
      {
        "name": "'Abbas Kushtah",
        "id": "geonames::1149666",
        "created": "2022-07-04T03:31:50.055135+00:00",
        "revision_id": 1,
        "locations": [
          {
            "geometry": {
              "type": "Point",
              "coordinates": [
                67.64074,
                34.33131
              ]
            }
          }
        ],
        "links": {
          "self": "https://api-mock/api/geoidentifiers/geonames%3A%3A1149666"
        },
        "updated": "2022-07-04T03:31:50.075717+00:00",
        "scheme": "GeoNames"
      },
      {
        "name": "'Abd ol Baki Sasuki",
        "id": "geonames::6651104",
        "created": "2022-07-04T05:01:09.704236+00:00",
        "revision_id": 1,
        "locations": [
          {
            "geometry": {
              "type": "Point",
              "coordinates": [
                61.80106,
                31.1744
              ]
            }
          }
        ],
        "links": {
          "self": "https://api-mock/api/geoidentifiers/geonames%3A%3A6651104"
        },
        "updated": "2022-07-04T05:01:09.723480+00:00",
        "scheme": "GeoNames"
      },
      {
        "name": "'Abd ul 'Aziz Khan",
        "id": "geonames::1435983",
        "created": "2022-07-04T03:53:34.294896+00:00",
        "revision_id": 1,
        "locations": [
          {
            "geometry": {
              "type": "Point",
              "coordinates": [
                61.80703,
                30.9156
              ]
            }
          }
        ],
        "links": {
          "self": "https://api-mock/api/geoidentifiers/geonames%3A%3A1435983"
        },
        "updated": "2022-07-04T03:53:34.308160+00:00",
        "scheme": "GeoNames"
      },
      {
        "name": "'Abd ul Baqi",
        "id": "geonames::1436277",
        "created": "2022-07-04T03:54:12.394731+00:00",
        "revision_id": 1,
        "locations": [
          {
            "geometry": {
              "type": "Point",
              "coordinates": [
                61.83496,
                31.11644
              ]
            }
          }
        ],
        "links": {
          "self": "https://api-mock/api/geoidentifiers/geonames%3A%3A1436277"
        },
        "updated": "2022-07-04T03:54:12.409261+00:00",
        "scheme": "GeoNames"
      },
      {
        "name": "'Abd ul Hamid Kotkay",
        "id": "geonames::1434527",
        "created": "2022-07-04T03:50:44.163215+00:00",
        "revision_id": 1,
        "locations": [
          {
            "geometry": {
              "type": "Point",
              "coordinates": [
                69.85919,
                33.25422
              ]
            }
          }
        ],
        "links": {
          "self": "https://api-mock/api/geoidentifiers/geonames%3A%3A1434527"
        },
        "updated": "2022-07-04T03:50:44.181783+00:00",
        "scheme": "GeoNames"
      },
      {
        "name": "'Abd ul Karim Taraki",
        "id": "geonames::1149568",
        "created": "2022-07-04T03:31:38.109180+00:00",
        "revision_id": 1,
        "locations": [
          {
            "geometry": {
              "type": "Point",
              "coordinates": [
                63.2589,
                35.08759
              ]
            }
          }
        ],
        "links": {
          "self": "https://api-mock/api/geoidentifiers/geonames%3A%3A1149568"
        },
        "updated": "2022-07-04T03:31:38.123904+00:00",
        "scheme": "GeoNames"
      },
      {
        "name": "'Abd ul Samad Khan",
        "id": "geonames::1149573",
        "created": "2022-07-04T03:31:38.682729+00:00",
        "revision_id": 1,
        "locations": [
          {
            "geometry": {
              "type": "Point",
              "coordinates": [
                61.78037,
                31.21615
              ]
            }
          }
        ],
        "links": {
          "self": "https://api-mock/api/geoidentifiers/geonames%3A%3A1149573"
        },
        "updated": "2022-07-04T03:31:38.696536+00:00",
        "scheme": "GeoNames"
      },
      {
        "name": "'Abd ul Wahid Khan",
        "id": "geonames::1436255",
        "created": "2022-07-04T03:54:09.632799+00:00",
        "revision_id": 1,
        "locations": [
          {
            "geometry": {
              "type": "Point",
              "coordinates": [
                61.80265,
                31.17195
              ]
            }
          }
        ],
        "links": {
          "self": "https://api-mock/api/geoidentifiers/geonames%3A%3A1436255"
        },
        "updated": "2022-07-04T03:54:09.651846+00:00",
        "scheme": "GeoNames"
      },
      {
        "name": "'Abd ul Zahir",
        "id": "geonames::1436304",
        "created": "2022-07-04T03:54:16.032768+00:00",
        "revision_id": 1,
        "locations": [
          {
            "geometry": {
              "type": "Point",
              "coordinates": [
                61.86333,
                31.06722
              ]
            }
          }
        ],
        "links": {
          "self": "https://api-mock/api/geoidentifiers/geonames%3A%3A1436304"
        },
        "updated": "2022-07-04T03:54:16.046864+00:00",
        "scheme": "GeoNames"
      },
      {
        "name": "'Abd ur Rahim",
        "id": "geonames::1149587",
        "created": "2022-07-04T03:31:40.431687+00:00",
        "revision_id": 1,
        "locations": [
          {
            "geometry": {
              "type": "Point",
              "coordinates": [
                68.4169,
                33.29184
              ]
            }
          }
        ],
        "links": {
          "self": "https://api-mock/api/geoidentifiers/geonames%3A%3A1149587"
        },
        "updated": "2022-07-04T03:31:40.447398+00:00",
        "scheme": "GeoNames"
      },
      {
        "name": "'Abd ur Rahim Kelay",
        "id": "geonames::1436832",
        "created": "2022-07-04T03:54:36.742231+00:00",
        "revision_id": 1,
        "locations": [
          {
            "geometry": {
              "type": "Point",
              "coordinates": [
                66.33573,
                31.56236
              ]
            }
          }
        ],
        "links": {
          "self": "https://api-mock/api/geoidentifiers/geonames%3A%3A1436832"
        },
        "updated": "2022-07-04T03:54:36.757007+00:00",
        "scheme": "GeoNames"
      },
      {
        "name": "'Abd ur Rahim Khel",
        "id": "geonames::1149586",
        "created": "2022-07-04T03:31:40.319990+00:00",
        "revision_id": 1,
        "locations": [
          {
            "geometry": {
              "type": "Point",
              "coordinates": [
                68.4411,
                33.91115
              ]
            }
          }
        ],
        "links": {
          "self": "https://api-mock/api/geoidentifiers/geonames%3A%3A1149586"
        },
        "updated": "2022-07-04T03:31:40.339204+00:00",
        "scheme": "GeoNames"
      },
      {
        "name": "'Abd ur Rahimzi",
        "id": "geonames::1149585",
        "created": "2022-07-04T03:31:40.206332+00:00",
        "revision_id": 1,
        "locations": [
          {
            "geometry": {
              "type": "Point",
              "coordinates": [
                69.89844,
                34.44618
              ]
            }
          }
        ],
        "links": {
          "self": "https://api-mock/api/geoidentifiers/geonames%3A%3A1149585"
        },
        "updated": "2022-07-04T03:31:40.223190+00:00",
        "scheme": "GeoNames"
      },
      {
        "name": "'Abd ur Rahimzi",
        "id": "geonames::7096924",
        "created": "2022-07-04T05:03:24.398527+00:00",
        "revision_id": 1,
        "locations": [
          {
            "geometry": {
              "type": "Point",
              "coordinates": [
                69.1688,
                34.30797
              ]
            }
          }
        ],
        "links": {
          "self": "https://api-mock/api/geoidentifiers/geonames%3A%3A7096924"
        },
        "updated": "2022-07-04T05:03:24.416650+00:00",
        "scheme": "GeoNames"
      }
    ],
    "total": 260411
  },
  "sortBy": "name",
  "links": {
    "self": "https://api-mock/api/geoidentifiers?page=1&size=25&sort=name",
    "next": "https://api-mock/api/geoidentifiers?page=2&size=25&sort=name"
  }
}